2022-11-02 11:42:36 - INFO - Starting OnlineBookStoreApplication using Java 17.0.2 on PUDCEON278 with PID 1172 (C:\Users\ppavankalyan\Downloads\OnlineBookStoreSpringBoot\OnlineBookStore\target\classes started by PPAVANKALYAN in C:\Users\ppavankalyan\Downloads\OnlineBookStoreSpringBoot\OnlineBookStore)
2022-11-02 11:42:36 - INFO - No active profile set, falling back to 1 default profile: "default"
2022-11-02 11:42:36 - INFO - Devtools property defaults active! Set 'spring.devtools.add-properties' to 'false' to disable
2022-11-02 11:42:36 - INFO - For additional web related logging consider setting the 'logging.level.web' property to 'DEBUG'
2022-11-02 11:42:40 - INFO - Bootstrapping Spring Data JPA repositories in DEFAULT mode.
2022-11-02 11:42:40 - INFO - Finished Spring Data repository scanning in 24 ms. Found 0 JPA repository interfaces.
2022-11-02 11:42:44 - INFO - Tomcat initialized with port(s): 8281 (http)
2022-11-02 11:42:44 - INFO - Starting service [Tomcat]
2022-11-02 11:42:44 - INFO - Starting Servlet engine: [Apache Tomcat/9.0.64]
2022-11-02 11:42:44 - INFO - At least one JAR was scanned for TLDs yet contained no TLDs. Enable debug logging for this logger for a complete list of JARs that were scanned but no TLDs were found in them. Skipping unneeded JARs during scanning can improve startup time and JSP compilation time.
2022-11-02 11:42:44 - INFO - Initializing Spring embedded WebApplicationContext
2022-11-02 11:42:44 - INFO - Root WebApplicationContext: initialization completed in 8275 ms
2022-11-02 11:42:45 - INFO - HHH000204: Processing PersistenceUnitInfo [name: default]
2022-11-02 11:42:45 - INFO - HHH000412: Hibernate ORM core version 5.6.9.Final
2022-11-02 11:42:46 - INFO - HCANN000001: Hibernate Commons Annotations {5.1.2.Final}
2022-11-02 11:42:46 - INFO - HikariPool-1 - Starting...
2022-11-02 11:42:46 - INFO - HikariPool-1 - Start completed.
2022-11-02 11:42:47 - INFO - HHH000400: Using dialect: org.hibernate.dialect.MySQL8Dialect
2022-11-02 11:42:48 - INFO - HHH000490: Using JtaPlatform implementation: [org.hibernate.engine.transaction.jta.platform.internal.NoJtaPlatform]
2022-11-02 11:42:48 - INFO - Initialized JPA EntityManagerFactory for persistence unit 'default'
2022-11-02 11:42:49 - WARN - spring.jpa.open-in-view is enabled by default. Therefore, database queries may be performed during view rendering. Explicitly configure spring.jpa.open-in-view to disable this warning
2022-11-02 11:42:49 - INFO - Publishing TilesContext for context: org.springframework.web.servlet.view.tiles3.SpringWildcardServletTilesApplicationContext
2022-11-02 11:42:49 - INFO - LiveReload server is running on port 35729
2022-11-02 11:42:49 - INFO - Tomcat started on port(s): 8281 (http) with context path '/OnlineBookStore'
2022-11-02 11:42:49 - INFO - Started OnlineBookStoreApplication in 14.442 seconds (JVM running for 16.29)
2022-11-02 11:43:55 - INFO - Removing TilesContext for context: org.springframework.web.servlet.view.tiles3.SpringWildcardServletTilesApplicationContext
2022-11-02 11:43:55 - INFO - Closing JPA EntityManagerFactory for persistence unit 'default'
2022-11-02 11:43:55 - INFO - HikariPool-1 - Shutdown initiated...
2022-11-02 11:43:55 - INFO - HikariPool-1 - Shutdown completed.
2022-11-02 11:43:55 - INFO - Starting OnlineBookStoreApplication using Java 17.0.2 on PUDCEON278 with PID 1172 (C:\Users\ppavankalyan\Downloads\OnlineBookStoreSpringBoot\OnlineBookStore\target\classes started by PPAVANKALYAN in C:\Users\ppavankalyan\Downloads\OnlineBookStoreSpringBoot\OnlineBookStore)
2022-11-02 11:43:55 - INFO - No active profile set, falling back to 1 default profile: "default"
2022-11-02 11:43:56 - INFO - Bootstrapping Spring Data JPA repositories in DEFAULT mode.
2022-11-02 11:43:56 - INFO - Finished Spring Data repository scanning in 14 ms. Found 0 JPA repository interfaces.
2022-11-02 11:43:56 - INFO - Tomcat initialized with port(s): 8000 (http)
2022-11-02 11:43:56 - INFO - Starting service [Tomcat]
2022-11-02 11:43:56 - INFO - Starting Servlet engine: [Apache Tomcat/9.0.64]
2022-11-02 11:43:56 - INFO - At least one JAR was scanned for TLDs yet contained no TLDs. Enable debug logging for this logger for a complete list of JARs that were scanned but no TLDs were found in them. Skipping unneeded JARs during scanning can improve startup time and JSP compilation time.
2022-11-02 11:43:56 - INFO - Initializing Spring embedded WebApplicationContext
2022-11-02 11:43:56 - INFO - Root WebApplicationContext: initialization completed in 820 ms
2022-11-02 11:43:56 - INFO - HHH000204: Processing PersistenceUnitInfo [name: default]
2022-11-02 11:43:56 - INFO - HikariPool-2 - Starting...
2022-11-02 11:43:56 - INFO - HikariPool-2 - Start completed.
2022-11-02 11:43:56 - INFO - HHH000400: Using dialect: org.hibernate.dialect.MySQL8Dialect
2022-11-02 11:43:57 - INFO - HHH000490: Using JtaPlatform implementation: [org.hibernate.engine.transaction.jta.platform.internal.NoJtaPlatform]
2022-11-02 11:43:57 - INFO - Initialized JPA EntityManagerFactory for persistence unit 'default'
2022-11-02 11:43:57 - WARN - spring.jpa.open-in-view is enabled by default. Therefore, database queries may be performed during view rendering. Explicitly configure spring.jpa.open-in-view to disable this warning
2022-11-02 11:43:57 - INFO - Publishing TilesContext for context: org.springframework.web.servlet.view.tiles3.SpringWildcardServletTilesApplicationContext
2022-11-02 11:43:57 - INFO - LiveReload server is running on port 35729
2022-11-02 11:43:57 - INFO - Tomcat started on port(s): 8000 (http) with context path '/OnlineBookStore'
2022-11-02 11:43:57 - INFO - Started OnlineBookStoreApplication in 1.451 seconds (JVM running for 83.669)
2022-11-02 11:43:57 - INFO - Condition evaluation unchanged
2022-11-02 11:44:24 - INFO - Application shutdown requested.
2022-11-02 11:44:24 - INFO - Removing TilesContext for context: org.springframework.web.servlet.view.tiles3.SpringWildcardServletTilesApplicationContext
2022-11-02 11:44:24 - INFO - Closing JPA EntityManagerFactory for persistence unit 'default'
2022-11-02 11:44:24 - INFO - HikariPool-2 - Shutdown initiated...
2022-11-02 11:44:24 - INFO - HikariPool-2 - Shutdown completed.
2022-11-02 12:07:27 - INFO - Starting OnlineBookStoreApplication using Java 17.0.2 on PUDCEON278 with PID 17564 (C:\Users\ppavankalyan\Downloads\OnlineBookStoreSpringBoot\OnlineBookStore\target\classes started by PPAVANKALYAN in C:\Users\ppavankalyan\Downloads\OnlineBookStoreSpringBoot\OnlineBookStore)
2022-11-02 12:07:27 - INFO - No active profile set, falling back to 1 default profile: "default"
2022-11-02 12:07:27 - INFO - Devtools property defaults active! Set 'spring.devtools.add-properties' to 'false' to disable
2022-11-02 12:07:27 - INFO - For additional web related logging consider setting the 'logging.level.web' property to 'DEBUG'
2022-11-02 12:07:29 - INFO - Bootstrapping Spring Data JPA repositories in DEFAULT mode.
2022-11-02 12:07:29 - INFO - Finished Spring Data repository scanning in 18 ms. Found 0 JPA repository interfaces.
2022-11-02 12:07:30 - INFO - Tomcat initialized with port(s): 8000 (http)
2022-11-02 12:07:30 - INFO - Starting service [Tomcat]
2022-11-02 12:07:30 - INFO - Starting Servlet engine: [Apache Tomcat/9.0.64]
2022-11-02 12:07:30 - INFO - At least one JAR was scanned for TLDs yet contained no TLDs. Enable debug logging for this logger for a complete list of JARs that were scanned but no TLDs were found in them. Skipping unneeded JARs during scanning can improve startup time and JSP compilation time.
2022-11-02 12:07:30 - INFO - Initializing Spring embedded WebApplicationContext
2022-11-02 12:07:30 - INFO - Root WebApplicationContext: initialization completed in 2895 ms
2022-11-02 12:07:30 - INFO - HHH000204: Processing PersistenceUnitInfo [name: default]
2022-11-02 12:07:31 - INFO - HHH000412: Hibernate ORM core version 5.6.9.Final
2022-11-02 12:07:31 - INFO - HCANN000001: Hibernate Commons Annotations {5.1.2.Final}
2022-11-02 12:07:31 - INFO - HikariPool-1 - Starting...
2022-11-02 12:07:32 - INFO - HikariPool-1 - Start completed.
2022-11-02 12:07:32 - INFO - HHH000400: Using dialect: org.hibernate.dialect.MySQL8Dialect
2022-11-02 12:07:33 - INFO - HHH000490: Using JtaPlatform implementation: [org.hibernate.engine.transaction.jta.platform.internal.NoJtaPlatform]
2022-11-02 12:07:33 - INFO - Initialized JPA EntityManagerFactory for persistence unit 'default'
2022-11-02 12:07:34 - WARN - spring.jpa.open-in-view is enabled by default. Therefore, database queries may be performed during view rendering. Explicitly configure spring.jpa.open-in-view to disable this warning
2022-11-02 12:07:34 - INFO - LiveReload server is running on port 35729
2022-11-02 12:07:34 - INFO - Publishing TilesContext for context: org.springframework.web.servlet.view.tiles3.SpringWildcardServletTilesApplicationContext
2022-11-02 12:07:34 - INFO - Tomcat started on port(s): 8000 (http) with context path '/OnlineBookStore'
2022-11-02 12:07:35 - INFO - Started OnlineBookStoreApplication in 8.653 seconds (JVM running for 10.143)
2022-11-02 12:11:36 - INFO - Removing TilesContext for context: org.springframework.web.servlet.view.tiles3.SpringWildcardServletTilesApplicationContext
2022-11-02 12:11:36 - INFO - Closing JPA EntityManagerFactory for persistence unit 'default'
2022-11-02 12:11:36 - INFO - HikariPool-1 - Shutdown initiated...
2022-11-02 12:11:36 - INFO - HikariPool-1 - Shutdown completed.
2022-11-02 12:11:40 - INFO - Starting OnlineBookStoreApplication using Java 17.0.2 on PUDCEON278 with PID 17564 (C:\Users\ppavankalyan\Downloads\OnlineBookStoreSpringBoot\OnlineBookStore\target\classes started by PPAVANKALYAN in C:\Users\ppavankalyan\Downloads\OnlineBookStoreSpringBoot\OnlineBookStore)
2022-11-02 12:11:40 - INFO - No active profile set, falling back to 1 default profile: "default"
2022-11-02 12:11:40 - INFO - Bootstrapping Spring Data JPA repositories in DEFAULT mode.
2022-11-02 12:11:40 - INFO - Finished Spring Data repository scanning in 14 ms. Found 0 JPA repository interfaces.
2022-11-02 12:11:41 - INFO - Tomcat initialized with port(s): 8000 (http)
2022-11-02 12:11:41 - INFO - Starting service [Tomcat]
2022-11-02 12:11:41 - INFO - Starting Servlet engine: [Apache Tomcat/9.0.64]
2022-11-02 12:11:41 - INFO - At least one JAR was scanned for TLDs yet contained no TLDs. Enable debug logging for this logger for a complete list of JARs that were scanned but no TLDs were found in them. Skipping unneeded JARs during scanning can improve startup time and JSP compilation time.
2022-11-02 12:11:41 - INFO - Initializing Spring embedded WebApplicationContext
2022-11-02 12:11:41 - INFO - Root WebApplicationContext: initialization completed in 829 ms
2022-11-02 12:11:41 - INFO - HHH000204: Processing PersistenceUnitInfo [name: default]
2022-11-02 12:11:41 - INFO - HikariPool-2 - Starting...
2022-11-02 12:11:41 - INFO - HikariPool-2 - Start completed.
2022-11-02 12:11:41 - INFO - HHH000400: Using dialect: org.hibernate.dialect.MySQL8Dialect
2022-11-02 12:11:41 - INFO - HHH000490: Using JtaPlatform implementation: [org.hibernate.engine.transaction.jta.platform.internal.NoJtaPlatform]
2022-11-02 12:11:41 - INFO - Initialized JPA EntityManagerFactory for persistence unit 'default'
2022-11-02 12:11:41 - WARN - spring.jpa.open-in-view is enabled by default. Therefore, database queries may be performed during view rendering. Explicitly configure spring.jpa.open-in-view to disable this warning
2022-11-02 12:11:41 - INFO - LiveReload server is running on port 35729
2022-11-02 12:11:41 - INFO - Publishing TilesContext for context: org.springframework.web.servlet.view.tiles3.SpringWildcardServletTilesApplicationContext
2022-11-02 12:11:41 - INFO - Tomcat started on port(s): 8000 (http) with context path '/OnlineBookStore'
2022-11-02 12:11:42 - INFO - Started OnlineBookStoreApplication in 1.809 seconds (JVM running for 256.553)
2022-11-02 12:11:42 - INFO - Condition evaluation unchanged
2022-11-02 12:12:27 - INFO - Application shutdown requested.
2022-11-02 12:12:27 - INFO - Removing TilesContext for context: org.springframework.web.servlet.view.tiles3.SpringWildcardServletTilesApplicationContext
2022-11-02 12:12:27 - INFO - Closing JPA EntityManagerFactory for persistence unit 'default'
2022-11-02 12:12:27 - INFO - HikariPool-2 - Shutdown initiated...
2022-11-02 12:12:27 - INFO - HikariPool-2 - Shutdown completed.
2022-11-02 12:12:43 - INFO - Starting OnlineBookStoreApplication using Java 17.0.2 on PUDCEON278 with PID 10320 (C:\Users\ppavankalyan\Downloads\OnlineBookStoreSpringBoot\OnlineBookStore\target\classes started by PPAVANKALYAN in C:\Users\ppavankalyan\Downloads\OnlineBookStoreSpringBoot\OnlineBookStore)
2022-11-02 12:12:43 - INFO - No active profile set, falling back to 1 default profile: "default"
2022-11-02 12:12:43 - INFO - Devtools property defaults active! Set 'spring.devtools.add-properties' to 'false' to disable
2022-11-02 12:12:43 - INFO - For additional web related logging consider setting the 'logging.level.web' property to 'DEBUG'
2022-11-02 12:12:45 - INFO - Bootstrapping Spring Data JPA repositories in DEFAULT mode.
2022-11-02 12:12:45 - INFO - Finished Spring Data repository scanning in 20 ms. Found 0 JPA repository interfaces.
2022-11-02 12:12:46 - INFO - Tomcat initialized with port(s): 8000 (http)
2022-11-02 12:12:46 - INFO - Starting service [Tomcat]
2022-11-02 12:12:46 - INFO - Starting Servlet engine: [Apache Tomcat/9.0.64]
2022-11-02 12:12:47 - INFO - At least one JAR was scanned for TLDs yet contained no TLDs. Enable debug logging for this logger for a complete list of JARs that were scanned but no TLDs were found in them. Skipping unneeded JARs during scanning can improve startup time and JSP compilation time.
2022-11-02 12:12:47 - INFO - Initializing Spring embedded WebApplicationContext
2022-11-02 12:12:47 - INFO - Root WebApplicationContext: initialization completed in 3814 ms
2022-11-02 12:12:47 - INFO - HHH000204: Processing PersistenceUnitInfo [name: default]
2022-11-02 12:12:47 - INFO - HHH000412: Hibernate ORM core version 5.6.9.Final
2022-11-02 12:12:48 - INFO - HCANN000001: Hibernate Commons Annotations {5.1.2.Final}
2022-11-02 12:12:48 - INFO - HikariPool-1 - Starting...
2022-11-02 12:12:48 - INFO - HikariPool-1 - Start completed.
2022-11-02 12:12:48 - INFO - HHH000400: Using dialect: org.hibernate.dialect.MySQL8Dialect
2022-11-02 12:12:50 - INFO - HHH000490: Using JtaPlatform implementation: [org.hibernate.engine.transaction.jta.platform.internal.NoJtaPlatform]
2022-11-02 12:12:50 - INFO - Initialized JPA EntityManagerFactory for persistence unit 'default'
2022-11-02 12:12:50 - WARN - spring.jpa.open-in-view is enabled by default. Therefore, database queries may be performed during view rendering. Explicitly configure spring.jpa.open-in-view to disable this warning
2022-11-02 12:12:51 - INFO - LiveReload server is running on port 35729
2022-11-02 12:12:51 - INFO - Publishing TilesContext for context: org.springframework.web.servlet.view.tiles3.SpringWildcardServletTilesApplicationContext
2022-11-02 12:12:51 - INFO - Tomcat started on port(s): 8000 (http) with context path '/OnlineBookStore'
2022-11-02 12:12:52 - INFO - Started OnlineBookStoreApplication in 9.946 seconds (JVM running for 11.156)
2022-11-02 12:13:26 - INFO - Initializing Spring DispatcherServlet 'dispatcherServlet'
2022-11-02 12:13:26 - INFO - Initializing Servlet 'dispatcherServlet'
2022-11-02 12:13:26 - INFO - Completed initialization in 2 ms
2022-11-02 12:13:27 - INFO - LoginCtl login display method start
2022-11-02 12:13:27 - INFO - LoginCtl login display method End
2022-11-02 12:13:29 - WARN - No mapping for GET /OnlineBookStore/images/front-view.jpg
2022-11-02 12:15:41 - INFO - Application shutdown requested.
2022-11-02 12:15:41 - INFO - Removing TilesContext for context: org.springframework.web.servlet.view.tiles3.SpringWildcardServletTilesApplicationContext
2022-11-02 12:15:41 - INFO - Closing JPA EntityManagerFactory for persistence unit 'default'
2022-11-02 12:15:41 - INFO - HikariPool-1 - Shutdown initiated...
2022-11-02 12:15:41 - INFO - HikariPool-1 - Shutdown completed.
2022-11-02 12:15:47 - INFO - Starting OnlineBookStoreApplication using Java 17.0.2 on PUDCEON278 with PID 13624 (C:\Users\ppavankalyan\Downloads\OnlineBookStoreSpringBoot\OnlineBookStore\target\classes started by PPAVANKALYAN in C:\Users\ppavankalyan\Downloads\OnlineBookStoreSpringBoot\OnlineBookStore)
2022-11-02 12:15:47 - INFO - No active profile set, falling back to 1 default profile: "default"
2022-11-02 12:15:47 - INFO - Devtools property defaults active! Set 'spring.devtools.add-properties' to 'false' to disable
2022-11-02 12:15:47 - INFO - For additional web related logging consider setting the 'logging.level.web' property to 'DEBUG'
2022-11-02 12:15:48 - INFO - Bootstrapping Spring Data JPA repositories in DEFAULT mode.
2022-11-02 12:15:48 - INFO - Finished Spring Data repository scanning in 20 ms. Found 0 JPA repository interfaces.
2022-11-02 12:15:49 - INFO - Tomcat initialized with port(s): 8000 (http)
2022-11-02 12:15:49 - INFO - Starting service [Tomcat]
2022-11-02 12:15:49 - INFO - Starting Servlet engine: [Apache Tomcat/9.0.64]
2022-11-02 12:15:50 - INFO - At least one JAR was scanned for TLDs yet contained no TLDs. Enable debug logging for this logger for a complete list of JARs that were scanned but no TLDs were found in them. Skipping unneeded JARs during scanning can improve startup time and JSP compilation time.
2022-11-02 12:15:50 - INFO - Initializing Spring embedded WebApplicationContext
2022-11-02 12:15:50 - INFO - Root WebApplicationContext: initialization completed in 2919 ms
2022-11-02 12:15:50 - INFO - HHH000204: Processing PersistenceUnitInfo [name: default]
2022-11-02 12:15:50 - INFO - HHH000412: Hibernate ORM core version 5.6.9.Final
2022-11-02 12:15:50 - INFO - HCANN000001: Hibernate Commons Annotations {5.1.2.Final}
2022-11-02 12:15:50 - INFO - HikariPool-1 - Starting...
2022-11-02 12:15:51 - INFO - HikariPool-1 - Start completed.
2022-11-02 12:15:51 - INFO - HHH000400: Using dialect: org.hibernate.dialect.MySQL8Dialect
2022-11-02 12:15:52 - INFO - HHH000490: Using JtaPlatform implementation: [org.hibernate.engine.transaction.jta.platform.internal.NoJtaPlatform]
2022-11-02 12:15:52 - INFO - Initialized JPA EntityManagerFactory for persistence unit 'default'
2022-11-02 12:15:52 - WARN - spring.jpa.open-in-view is enabled by default. Therefore, database queries may be performed during view rendering. Explicitly configure spring.jpa.open-in-view to disable this warning
2022-11-02 12:15:53 - INFO - LiveReload server is running on port 35729
2022-11-02 12:15:53 - INFO - Publishing TilesContext for context: org.springframework.web.servlet.view.tiles3.SpringWildcardServletTilesApplicationContext
2022-11-02 12:15:53 - INFO - Tomcat started on port(s): 8000 (http) with context path '/OnlineBookStore'
2022-11-02 12:15:54 - INFO - Started OnlineBookStoreApplication in 7.691 seconds (JVM running for 8.765)
2022-11-02 12:17:05 - INFO - Application shutdown requested.
2022-11-02 12:17:05 - INFO - Removing TilesContext for context: org.springframework.web.servlet.view.tiles3.SpringWildcardServletTilesApplicationContext
2022-11-02 12:17:05 - INFO - Closing JPA EntityManagerFactory for persistence unit 'default'
2022-11-02 12:17:05 - INFO - HikariPool-1 - Shutdown initiated...
2022-11-02 12:17:05 - INFO - HikariPool-1 - Shutdown completed.
2022-11-02 12:17:05 - INFO - Starting OnlineBookStoreApplication using Java 17.0.2 on PUDCEON278 with PID 13624 (C:\Users\ppavankalyan\Downloads\OnlineBookStoreSpringBoot\OnlineBookStore\target\classes started by PPAVANKALYAN in C:\Users\ppavankalyan\Downloads\OnlineBookStoreSpringBoot\OnlineBookStore)
2022-11-02 12:17:05 - INFO - No active profile set, falling back to 1 default profile: "default"
2022-11-02 12:17:06 - INFO - Bootstrapping Spring Data JPA repositories in DEFAULT mode.
2022-11-02 12:17:06 - INFO - Finished Spring Data repository scanning in 14 ms. Found 0 JPA repository interfaces.
2022-11-02 12:17:06 - INFO - Tomcat initialized with port(s): 8080 (http)
2022-11-02 12:17:06 - INFO - Starting service [Tomcat]
2022-11-02 12:17:06 - INFO - Starting Servlet engine: [Apache Tomcat/9.0.64]
2022-11-02 12:17:06 - INFO - At least one JAR was scanned for TLDs yet contained no TLDs. Enable debug logging for this logger for a complete list of JARs that were scanned but no TLDs were found in them. Skipping unneeded JARs during scanning can improve startup time and JSP compilation time.
2022-11-02 12:17:06 - INFO - Initializing Spring embedded WebApplicationContext
2022-11-02 12:17:06 - INFO - Root WebApplicationContext: initialization completed in 981 ms
2022-11-02 12:17:06 - INFO - HHH000204: Processing PersistenceUnitInfo [name: default]
2022-11-02 12:17:06 - INFO - HikariPool-2 - Starting...
2022-11-02 12:17:06 - INFO - HikariPool-2 - Start completed.
2022-11-02 12:17:06 - INFO - HHH000400: Using dialect: org.hibernate.dialect.MySQL8Dialect
2022-11-02 12:17:07 - INFO - HHH000490: Using JtaPlatform implementation: [org.hibernate.engine.transaction.jta.platform.internal.NoJtaPlatform]
2022-11-02 12:17:07 - INFO - Initialized JPA EntityManagerFactory for persistence unit 'default'
2022-11-02 12:17:07 - WARN - spring.jpa.open-in-view is enabled by default. Therefore, database queries may be performed during view rendering. Explicitly configure spring.jpa.open-in-view to disable this warning
2022-11-02 12:17:07 - INFO - LiveReload server is running on port 35729
2022-11-02 12:17:07 - INFO - Publishing TilesContext for context: org.springframework.web.servlet.view.tiles3.SpringWildcardServletTilesApplicationContext
2022-11-02 12:17:07 - INFO - Tomcat started on port(s): 8080 (http) with context path '/OnlineBookStore'
2022-11-02 12:17:07 - INFO - Started OnlineBookStoreApplication in 1.935 seconds (JVM running for 82.062)
2022-11-02 12:17:07 - INFO - Condition evaluation unchanged
2022-11-02 12:17:25 - INFO - Starting OnlineBookStoreApplication using Java 17.0.2 on PUDCEON278 with PID 7516 (C:\Users\ppavankalyan\Downloads\OnlineBookStoreSpringBoot\OnlineBookStore\target\classes started by PPAVANKALYAN in C:\Users\ppavankalyan\Downloads\OnlineBookStoreSpringBoot\OnlineBookStore)
2022-11-02 12:17:25 - INFO - No active profile set, falling back to 1 default profile: "default"
2022-11-02 12:17:26 - INFO - Devtools property defaults active! Set 'spring.devtools.add-properties' to 'false' to disable
2022-11-02 12:17:26 - INFO - For additional web related logging consider setting the 'logging.level.web' property to 'DEBUG'
2022-11-02 12:17:30 - INFO - Bootstrapping Spring Data JPA repositories in DEFAULT mode.
2022-11-02 12:17:30 - INFO - Finished Spring Data repository scanning in 36 ms. Found 0 JPA repository interfaces.
2022-11-02 12:17:32 - INFO - Tomcat initialized with port(s): 8080 (http)
2022-11-02 12:17:32 - INFO - Starting service [Tomcat]
2022-11-02 12:17:32 - INFO - Starting Servlet engine: [Apache Tomcat/9.0.64]
2022-11-02 12:17:33 - INFO - At least one JAR was scanned for TLDs yet contained no TLDs. Enable debug logging for this logger for a complete list of JARs that were scanned but no TLDs were found in them. Skipping unneeded JARs during scanning can improve startup time and JSP compilation time.
2022-11-02 12:17:33 - INFO - Initializing Spring embedded WebApplicationContext
2022-11-02 12:17:33 - INFO - Root WebApplicationContext: initialization completed in 7585 ms
2022-11-02 12:17:34 - INFO - HHH000204: Processing PersistenceUnitInfo [name: default]
2022-11-02 12:17:34 - INFO - HHH000412: Hibernate ORM core version 5.6.9.Final
2022-11-02 12:17:35 - INFO - HCANN000001: Hibernate Commons Annotations {5.1.2.Final}
2022-11-02 12:17:35 - INFO - HikariPool-1 - Starting...
2022-11-02 12:17:36 - INFO - HikariPool-1 - Start completed.
2022-11-02 12:17:36 - INFO - HHH000400: Using dialect: org.hibernate.dialect.MySQL8Dialect
2022-11-02 12:17:39 - INFO - HHH000490: Using JtaPlatform implementation: [org.hibernate.engine.transaction.jta.platform.internal.NoJtaPlatform]
2022-11-02 12:17:40 - INFO - Initialized JPA EntityManagerFactory for persistence unit 'default'
2022-11-02 12:17:41 - WARN - spring.jpa.open-in-view is enabled by default. Therefore, database queries may be performed during view rendering. Explicitly configure spring.jpa.open-in-view to disable this warning
2022-11-02 12:17:41 - INFO - LiveReload server is running on port 35729
2022-11-02 12:17:42 - INFO - Publishing TilesContext for context: org.springframework.web.servlet.view.tiles3.SpringWildcardServletTilesApplicationContext
2022-11-02 12:17:43 - INFO - Tomcat started on port(s): 8080 (http) with context path '/OnlineBookStore'
2022-11-02 12:17:44 - INFO - Started OnlineBookStoreApplication in 19.702 seconds (JVM running for 20.909)
2022-11-02 13:03:54 - INFO - Application shutdown requested.
2022-11-02 13:03:54 - INFO - Removing TilesContext for context: org.springframework.web.servlet.view.tiles3.SpringWildcardServletTilesApplicationContext
2022-11-02 13:03:54 - INFO - Closing JPA EntityManagerFactory for persistence unit 'default'
2022-11-02 13:03:54 - INFO - HikariPool-1 - Shutdown initiated...
2022-11-02 13:03:54 - INFO - HikariPool-1 - Shutdown completed.
2022-11-02 17:28:32 - INFO - Starting OnlineBookStoreApplication using Java 17.0.2 on PUDCEON278 with PID 17836 (C:\Users\ppavankalyan\Downloads\OnlineBookStoreSpringBoot\OnlineBookStore\target\classes started by PPAVANKALYAN in C:\Users\ppavankalyan\Downloads\OnlineBookStoreSpringBoot\OnlineBookStore)
2022-11-02 17:28:32 - INFO - No active profile set, falling back to 1 default profile: "default"
2022-11-02 17:28:32 - INFO - Devtools property defaults active! Set 'spring.devtools.add-properties' to 'false' to disable
2022-11-02 17:28:32 - INFO - For additional web related logging consider setting the 'logging.level.web' property to 'DEBUG'
2022-11-02 17:28:34 - INFO - Bootstrapping Spring Data JPA repositories in DEFAULT mode.
2022-11-02 17:28:34 - INFO - Finished Spring Data repository scanning in 19 ms. Found 0 JPA repository interfaces.
2022-11-02 17:28:36 - INFO - Tomcat initialized with port(s): 8080 (http)
2022-11-02 17:28:36 - INFO - Starting service [Tomcat]
2022-11-02 17:28:36 - INFO - Starting Servlet engine: [Apache Tomcat/9.0.64]
2022-11-02 17:28:36 - INFO - At least one JAR was scanned for TLDs yet contained no TLDs. Enable debug logging for this logger for a complete list of JARs that were scanned but no TLDs were found in them. Skipping unneeded JARs during scanning can improve startup time and JSP compilation time.
2022-11-02 17:28:36 - INFO - Initializing Spring embedded WebApplicationContext
2022-11-02 17:28:36 - INFO - Root WebApplicationContext: initialization completed in 4624 ms
2022-11-02 17:28:37 - INFO - HHH000204: Processing PersistenceUnitInfo [name: default]
2022-11-02 17:28:37 - INFO - HHH000412: Hibernate ORM core version 5.6.9.Final
2022-11-02 17:28:37 - INFO - HCANN000001: Hibernate Commons Annotations {5.1.2.Final}
2022-11-02 17:28:37 - INFO - HikariPool-1 - Starting...
2022-11-02 17:28:39 - INFO - HikariPool-1 - Start completed.
2022-11-02 17:28:39 - INFO - HHH000400: Using dialect: org.hibernate.dialect.MySQL8Dialect
2022-11-02 17:28:41 - INFO - HHH000490: Using JtaPlatform implementation: [org.hibernate.engine.transaction.jta.platform.internal.NoJtaPlatform]
2022-11-02 17:28:41 - INFO - Initialized JPA EntityManagerFactory for persistence unit 'default'
2022-11-02 17:28:42 - WARN - spring.jpa.open-in-view is enabled by default. Therefore, database queries may be performed during view rendering. Explicitly configure spring.jpa.open-in-view to disable this warning
2022-11-02 17:28:42 - INFO - LiveReload server is running on port 35729
2022-11-02 17:28:42 - INFO - Publishing TilesContext for context: org.springframework.web.servlet.view.tiles3.SpringWildcardServletTilesApplicationContext
2022-11-02 17:28:43 - INFO - Tomcat started on port(s): 8080 (http) with context path '/OnlineBookStore'
2022-11-02 17:28:43 - INFO - Started OnlineBookStoreApplication in 12.487 seconds (JVM running for 13.837)
2022-11-02 17:29:09 - INFO - Initializing Spring DispatcherServlet 'dispatcherServlet'
2022-11-02 17:29:09 - INFO - Initializing Servlet 'dispatcherServlet'
2022-11-02 17:29:09 - INFO - Completed initialization in 2 ms
2022-11-02 17:30:47 - INFO - Application shutdown requested.
2022-11-02 17:30:47 - INFO - Removing TilesContext for context: org.springframework.web.servlet.view.tiles3.SpringWildcardServletTilesApplicationContext
2022-11-02 17:30:47 - INFO - Closing JPA EntityManagerFactory for persistence unit 'default'
2022-11-02 17:30:47 - INFO - HikariPool-1 - Shutdown initiated...
2022-11-02 17:30:47 - INFO - HikariPool-1 - Shutdown completed.
